instructionCount,314945
NONE,0
ALU,95206
SHIFT,62363
LOAD,53136
STORE,36069
BRANCH,28841
JUMP,38329
OTHER,1001
NONE,0
sll,60363
srl,0
sra,2000
sllv,0
srlv,0
srav,0
jr,16035
add,0
addu,26034
sub,0
subu,3000
and,0
or,0
xor,0
nor,0
slt,20066
sltu,0
j,6259
jal,16035
jalr,0
mult,0
multu,0
div,0
divu,0
mfhi,0
mthi,0
mflo,0
mtlo,0
beq,16808
bne,12033
bgez,0
bgtz,0
blez,0
bltz,0
addi,0
addiu,40104
slti,0
sltiu,0
andi,2000
ori,1001
xori,0
lui,3001
lb,0
lh,0
lw,53136
lbu,0
lhu,0
sb,0
sh,0
sw,36069
syscall,1001
break,0
loadStalls, 0
controlStalls, 0
iCacheMissRate, -nan
dCacheMissRate, -nan
