instructionCount,236
NONE,0
ALU,162
SHIFT,21
LOAD,12
STORE,8
BRANCH,7
JUMP,19
OTHER,7
NONE,0
sll,21
srl,0
sra,0
sllv,0
srlv,0
srav,0
jr,6
add,18
addu,20
sub,0
subu,0
and,0
or,0
xor,0
nor,0
slt,0
sltu,0
j,6
jal,7
jalr,0
mult,18
multu,0
div,0
divu,0
mfhi,0
mthi,0
mflo,18
mtlo,0
beq,7
bne,0
bgez,0
bgtz,0
blez,0
bltz,0
addi,29
addiu,18
slti,7
sltiu,0
andi,0
ori,13
xori,0
lui,21
lb,0
lh,0
lw,12
lbu,0
lhu,0
sb,0
sh,0
sw,8
syscall,7
break,0
loadStalls, 0
controlStalls, 0
iCacheMissRate, -nan
dCacheMissRate, -nan
